{
  "key": "${addon.key}",
  "baseUrl": "${addon.base-url}",
  "name": "Atlassian Connect Spring Boot Liquibase Sample",
  "authentication": {
    "type": "jwt"
  },
  "lifecycle": {
    "installed": "/installed",
    "uninstalled": "/uninstalled"
  }
}
