{
  "key": "${addon.key}",
  "baseUrl": "${addon.base-url}",
  "name": "Atlassian Connect Spring Boot Sample Cacheable Macro",
  "authentication": {
    "type": "jwt"
  },
  "lifecycle": {
    "installed": "/installed",
    "uninstalled": "/uninstalled"
  },
  "scopes": ["READ"],
  "apiMigrations": {
    "gdpr": true
  },
  "modules": {
    "dynamicContentMacros": [
      {
        "key": "sample-cacheable-macro",
        "url": "/macro.html",
        "cacheable": true,
        "name": {
          "value": "Sample cacheable macro"
        },
        "outputType": "block",
        "bodyType": "rich-text",
        "parameters": [
          {
            "identifier": "sample-parameter",
            "type": "string",
            "name": {
              "value": "Sample parameter"
            }
          }
        ]
      }
    ]
  }
}
